{
    "key": "group_5ec5e5a7bffc5",
    "title": "Recipe Type",
    "fields": [
        {
            "key": "field_5ec5e5b66c20b",
            "label": "Recipe Type",
            "name": "recipe_type",
            "type": "taxonomy",
            "instructions": "",
            "required": 0,
            "conditional_logic": 0,
            "wrapper": {
                "width": "",
                "class": "",
                "id": ""
            },
            "taxonomy": "recipe-type",
            "field_type": "select",
            "allow_null": 0,
            "add_term": 0,
            "save_terms": 1,
            "load_terms": 1,
            "return_format": "object",
            "multiple": 0
        }
    ],
    "location": [
        [
            {
                "param": "post_type",
                "operator": "==",
                "value": "recipe"
            }
        ]
    ],
    "menu_order": 0,
    "position": "side",
    "style": "default",
    "label_placement": "top",
    "instruction_placement": "label",
    "hide_on_screen": "",
    "active": 1,
    "description": "Recipe Custom Post Type",
    "modified": 1590296868
}